[start]
20160101	0	20300101	0	50700	999999	0	0	5	202	1	毎日もらえる、にゃんこチケット！	ログインボーナスです。<br>にゃんこチケットがプレゼントされました☆	7	0	1
20160101	0	20300101	0	50700	999999	0	0	5000	901	1	カムバックキャンペーン！	復帰ユーザーさんに9日連続の応援ボーナス！	7	0	1
20181115	1100	20300101	0	80000	999999	0	0	5100	930	0	にゃんこクラブ☆ゴールド会員限定ログインスタンプ	ゴールド会員のあなたへにゃんこ軍団からのプレゼント！<br>1日30個ずつ、合計600個のネコカンをお届けにゃ！	7	0	1
20190628	1100	20300101	0	80200	80699	0	0	50698	303	0		https://ponosgames.com/information/appli/battlecats/event/20190628o.html	7	0	1
20190830	0	20300101	0	80700	80899	0	0	50761	303	0		https://ponosgames.com/information/appli/battlecats/event/20190830o.html	7	0	1
20190901	0	20300101	0	81000	999999	0	0	5110	807	0			0	0	0
20190610	0	20300101	0	80900	999999	0	1	0	0	2	0	50687	303	0		https://nyanko-webview.ponosgames.com/information/appli/battlecats/event/nekovitandayL1.html	100	0	1
20191222	0	20300101	0	80900	999999	0	1	0	1	22	0	0	50770	303	0		https://nyanko-webview.ponosgames.com/information/appli/battlecats/event/catmemorialdayL1.html	7	0	1
20201211	1100	20300101	1100	80900	100099	0	0	51090	300	0		https://nyanko-webview.ponosgames.com/information/appli/battlecats/event/20201211o.html	7	0	1
20210101	000	20300101	000	100200	999999	0	0	51101	29002	0			0	0	1
20210101	000	20300101	000	100200	999999	0	0	51102	29008	0			0	0	1
20210201	000	20300101	000	100300	999999	0	0	5120	819	0			100	0	0
20210401	400	20300101	0	100400	999999	0	12	1	101	400	103	400	0	0	0	1	201	400	203	400	0	0	0	1	301	400	303	400	0	0	0	1	401	400	403	400	0	0	0	1	501	400	503	400	0	0	0	1	601	400	603	400	0	0	0	1	701	400	703	400	0	0	0	1	801	400	803	400	0	0	0	1	901	400	903	400	0	0	0	1	1001	400	1003	400	0	0	0	1	1101	400	1103	400	0	0	0	1	1201	400	1203	400	0	0	0	51121	817	0			7	0	0
20210401	400	20300101	0	100400	999999	0	12	1	101	400	103	400	0	0	0	1	201	400	203	400	0	0	0	1	301	400	303	400	0	0	0	1	401	400	403	400	0	0	0	1	501	400	503	400	0	0	0	1	601	400	603	400	0	0	0	1	701	400	703	400	0	0	0	1	801	400	803	400	0	0	0	1	901	400	903	400	0	0	0	1	1001	400	1003	400	0	0	0	1	1101	400	1103	400	0	0	0	1	1201	400	1203	400	0	0	0	51122	818	0			7	0	0
20210410	0	20300101	0	100400	999999	0	1	0	3	10	11	12	0	0	51123	817	0			7	0	0
20210410	0	20300101	0	100400	999999	0	1	0	3	10	11	12	0	0	51124	818	0			7	0	0
20210422	0	20300101	0	100400	999999	0	1	0	3	22	23	24	0	0	51125	817	0			7	0	0
20210422	0	20300101	0	100400	999999	0	1	0	3	22	23	24	0	0	51126	818	0			7	0	0
20210531	000	20300101	000	100600	999999	0	0	51140	949	0	カムバックログインスタンプ☆	おひさしぶりにゃ～！カムバックしてくれたお礼に<br>毎日ログインで豪華アイテムプレゼントにゃ！	7	0	1
20230417	1100	20231015	1100	120300	999999	0	0	51319	981	0	10と1/2周年記念イベント開催記念スタンプ	イベント期間中にログインすると、1日1回スタンプを押してもらえるにゃ！<br>スタンプを貯めて便利なアイテムをゲット！！(10/15まで)	7	0	1
20230601	1100	20230721	1100	120400	999999	0	0	1982	301	0	←全画面告知の表示と同時に付与する		7	0	0	0	0
20230601	1100	20230721	1100	120400	999999	0	0	1983	302	0	←全画面告知の表示と同時に付与する		7	0	0	0	0
20230707	0	20230823	0	120501	999999	0	0	1988	1	10	アップデートによるバトルアイテム不具合のお詫び	バージョン12.5.0のお詫びとしてトレジャーレーダーが10個送られました。<br>詳細はアプリ内「運営からのお知らせ」をご確認ください。	1	0	0	0	0
20230707	0	20230823	0	120501	999999	0	0	1989	4	10	アップデートによるバトルアイテム不具合のお詫び	バージョン12.5.0のお詫びとしておかめはちもくが10個送られました。<br>詳細はアプリ内「運営からのお知らせ」をご確認ください。	1	0	0	0	0
20230710	1100	20230731	1100	120501	999999	0	0	80062	11008	0			7	0	0
20230710	1100	20230724	1100	120501	999999	0	0	51341	933	0	「ケリ姫スイーツ」コラボイベント開催記念☆	イベント期間中にログインすると、１日１回スタンプを押してもらえるにゃ！<br>スタンプを貯めて便利なアイテムや限定コラボキャラをゲット！！(7/24まで)	7	0	1
20230721	1100	20300101	000	120501	999999	0	0	1990	301	0	←全画面告知の表示と同時に付与する		7	0	0
20230721	1100	20300101	000	120501	999999	0	0	1991	302	0	←全画面告知の表示と同時に付与する		7	0	0
20230721	1100	20230901	1100	120501	999999	0	0	51344	966	0	「ねこのなつやすみ」自由研究応援スタンプ☆	なつやすみイベントを記念して特別ボーナス！<br>虫取り網でたくさん虫を捕まえて、自由研究を進めよう！（9/1まで）	7	0	1
20230721	1100	20230901	1100	120501	999999	0	0	51345	803	0			7	0	0
20230721	1100	20230811	1100	120501	999999	0	0	51346	830	0			7	0	0
20230722	000	20230723	000	120501	999999	0	0	1992	203	1	にゃんにゃん記念日☆	毎月22日はにゃんにゃん記念日！<br>大サービスで「レアチケット」を1枚プレゼント！	7	0	0
20230722	000	20230723	000	120501	999999	0	0	1993	220	1	にゃんにゃん記念日☆	毎月22日はにゃんにゃん記念日！<br>感謝の気持ちを込めて「リーダーシップ」を1枚プレゼント！	7	0	0
20230722	600	20230901	800	120501	999999	0	1	0	0	0	1	600	800	51347	967	0	 「ねこのなつやすみ」ラジオ体操出席カード	なつやすみイベントを記念して特別ボーナス！<br>毎朝6時～8時限定でアイテムプレゼント！（9/1まで）	7	0	1	0	0
20230801	000	20230802	000	120501	999999	0	0	51348	828	0			7	0	4
20230801	000	20230802	000	120501	999999	0	0	51349	835	0			7	0	2
20230801	1100	20230804	1100	120501	999999	0	0	51350	833	0			300	0	0
20230801	1100	20230804	1100	120501	999999	0	0	51351	834	0			300	2	0
20230721	1100	20230724	1100	120501	999999	0	0	1998	200	30	イベント不具合のお詫び	「レジェンドクエスト」ステージ不具合のお詫びでネコカン30個が送られました。<br>詳細はアプリ内「運営からのお知らせ」をご確認ください。	7	0	0
[end]
