[start]
20160101	0	20300101	0	50700	999999	0	6	0	0	65	2	1200	1300	1900	2000	0	0	2	1	1200	1300	0	0	4	1	2100	2200	0	0	8	1	2100	2200	0	0	16	1	1700	1800	0	0	32	1	1200	1300	1	100
20160101	0	20300101	0	50700	999999	0	6	0	0	65	2	1200	1300	1900	2000	0	0	2	1	1700	1800	0	0	4	1	1200	1300	0	0	8	1	1200	1300	0	0	16	1	2100	2200	0	0	32	1	2100	2200	1	101
20160101	0	20300101	0	50700	999999	0	1	0	0	2	0	2	1000	1097
20160101	0	20300101	0	50700	999999	0	1	0	0	4	0	2	1001	1098
20160101	0	20300101	0	50700	999999	0	1	0	0	8	0	2	1002	1099
20160101	0	20300101	0	50700	999999	0	1	0	0	16	0	2	1003	1100
20160101	0	20300101	0	50700	999999	0	1	0	0	32	0	2	1004	1101
20160101	0	20300101	0	50700	999999	0	1	0	0	65	0	1	1027
20160101	0	20300101	0	50700	999999	0	1	0	1	3	0	0	2	1017	1102
20160101	0	20300101	0	50700	999999	0	1	0	1	6	0	0	2	1018	1103
20160101	0	20300101	0	50700	999999	0	1	0	1	9	0	0	2	1019	1104
20160101	0	20300101	0	50700	999999	0	1	0	1	12	0	0	2	1020	1105
20160101	0	20300101	0	50700	999999	0	1	0	1	15	0	0	2	1021	1106
20160101	0	20300101	0	50700	999999	0	1	0	1	18	0	0	2	1022	1107
20160101	0	20300101	0	50700	999999	0	1	0	1	21	0	0	2	1023	1108
20160101	0	20300101	0	50700	999999	0	1	0	1	24	0	0	2	1024	1109
20160101	0	20300101	0	50700	999999	0	1	0	1	27	0	0	2	1025	1110
20160101	0	20300101	0	50700	999999	0	1	0	0	2	0	1	1014
20160101	0	20300101	0	50700	999999	0	1	0	0	8	0	1	1015
20160101	0	20300101	0	50700	999999	0	1	0	0	32	0	1	1016
20160101	0	20300101	0	50700	999999	0	1	0	0	64	0	1	1039
20160101	0	20300101	0	50700	999999	0	1	0	0	1	0	1	1043
20160101	0	20300101	0	50700	999999	0	1	0	0	16	0	1	1066
20160101	0	20300101	0	50700	999999	0	1	0	0	4	0	1	1096
20160101	0	20300101	0	50700	999999	0	1	0	0	4	0	1	1122
20160101	0	20300101	0	50700	999999	0	2	0	1	1	0	1	700	1400	0	1	2	0	1	1700	2359	1	1049
20160101	0	20300101	0	50700	999999	0	2	0	1	3	0	1	700	1400	0	1	4	0	1	1700	2359	1	1051
20160101	0	20300101	0	50700	999999	0	2	0	1	5	0	1	700	1400	0	1	6	0	1	1700	2359	1	1046
20160101	0	20300101	0	50700	999999	0	2	0	1	7	0	1	700	1400	0	1	8	0	1	1700	2359	1	1048
20160101	0	20300101	0	50700	999999	0	2	0	1	9	0	1	700	1400	0	1	10	0	1	1700	2359	1	1054
20160101	0	20300101	0	50700	999999	0	2	0	1	11	0	1	700	1400	0	1	12	0	1	1700	2359	1	1057
20160101	0	20300101	0	50700	999999	0	2	0	1	13	0	1	700	1400	0	1	14	0	1	1700	2359	1	1055
20160101	0	20300101	0	50700	999999	0	2	0	1	15	0	1	700	1400	0	1	16	0	1	1700	2359	1	1050
20160101	0	20300101	0	50700	999999	0	2	0	1	17	0	1	700	1400	0	1	18	0	1	1700	2359	1	1053
20160101	0	20300101	0	50700	999999	0	2	0	1	19	0	1	700	1400	0	1	20	0	1	1700	2359	1	1047
20160101	0	20300101	0	50700	999999	0	2	0	1	21	0	1	700	1400	0	1	22	0	1	1700	2359	1	1052
20160101	0	20300101	0	50700	999999	0	2	0	1	23	0	1	700	1400	0	1	24	0	1	1700	2359	1	1058
20160101	0	20300101	0	50700	999999	0	2	0	1	25	0	1	700	1400	0	1	26	0	1	1700	2359	1	1056
20160101	0	20300101	0	50700	999999	0	2	0	1	27	0	1	700	1400	0	1	28	0	1	1700	2359	1	1045
20160101	0	20300101	0	50700	999999	0	1	0	0	2	3	800	900	1200	1300	1900	2000	1	1073
20160101	0	20300101	0	50700	999999	0	1	0	0	4	3	800	900	1200	1300	1900	2000	1	1074
20160101	0	20300101	0	50700	999999	0	1	0	0	8	3	800	900	1200	1300	1900	2000	1	1075
20160101	0	20300101	0	50700	999999	0	1	0	0	16	3	800	900	1200	1300	1900	2000	1	1076
20160101	0	20300101	0	50700	999999	0	1	0	0	32	3	800	900	1200	1300	1900	2000	1	1077
20160101	0	20300101	0	50700	999999	0	11	0	1	1	0	1	700	800	0	1	4	0	1	1100	1200	0	1	7	0	1	1600	1700	0	1	10	0	1	800	900	0	1	13	0	1	1200	1300	0	1	16	0	1	1700	1800	0	1	19	0	1	1300	1400	0	1	22	0	1	1900	2000	0	1	25	0	1	2000	2100	0	1	28	0	1	2100	2200	0	1	31	0	1	2200	2300	1	1007
20160101	0	20300101	0	50700	999999	0	7	0	0	1	2	1100	1200	2200	2300	0	0	2	2	700	800	2000	2100	0	0	4	2	1100	1200	2300	2400	0	0	8	2	800	900	1600	1700	0	0	16	2	1300	1400	2300	2400	0	0	32	2	800	900	2200	2300	0	0	64	2	1300	1400	2100	2200	1	1006
20160101	0	20300101	0	50700	999999	0	5	0	0	2	2	1100	1200	2200	2300	0	0	4	2	800	900	1900	2000	0	0	8	2	1300	1400	2100	2200	0	0	16	2	1200	1300	2000	2100	0	0	32	2	1100	1200	1700	1800	1	1028
20160101	0	20300101	0	50700	999999	0	7	0	0	1	2	1300	1400	2000	2100	0	0	2	1	1200	1300	0	0	4	1	1600	1700	0	0	8	1	1900	2000	0	0	16	1	700	800	0	0	32	1	1300	1400	0	0	64	2	1100	1200	2300	2400	1	1059
20160101	0	20300101	0	50700	999999	0	0	1	6000
20160101	0	20300101	0	50700	999999	0	1	1	101	0	201	1100	0	0	0	1	1011
20160101	0	20300101	0	50700	999999	0	1	1	116	1100	201	1100	0	0	0	1	1083
20160101	0	20300101	0	50700	999999	0	1	1	201	1100	301	1100	0	0	0	1	1012
20160101	0	20300101	0	50700	999999	0	1	1	216	1100	301	1100	0	0	0	1	1084
20160101	0	20300101	0	50700	999999	0	1	1	301	1100	401	1100	0	0	0	1	1013
20160101	0	20300101	0	50700	999999	0	1	1	316	1100	401	1100	0	0	0	1	1085
20160101	0	20300101	0	50700	999999	0	1	1	401	1100	501	1100	0	0	0	1	1026
20160101	0	20300101	0	50700	999999	0	1	1	416	1100	501	1100	0	0	0	1	1086
20160101	0	20300101	0	50700	999999	0	1	1	501	1100	601	1100	0	0	0	1	1029
20160101	0	20300101	0	50700	999999	0	1	1	516	1100	601	1100	0	0	0	1	1087
20160101	0	20300101	0	50700	999999	0	1	1	601	1100	701	1100	0	0	0	1	1030
20160101	0	20300101	0	50700	999999	0	1	1	616	1100	701	1100	0	0	0	1	1088
20160101	0	20300101	0	50700	999999	0	1	1	701	1100	801	1100	0	0	0	1	1031
20160101	0	20300101	0	50700	999999	0	1	1	716	1100	801	1100	0	0	0	1	1089
20160101	0	20300101	0	50700	999999	0	1	1	801	1100	901	1100	0	0	0	1	1032
20160101	0	20300101	0	50700	999999	0	1	1	816	1100	901	1100	0	0	0	1	1090
20160101	0	20300101	0	50700	999999	0	1	1	901	1100	1001	1100	0	0	0	1	1036
20160101	0	20300101	0	50700	999999	0	1	1	916	1100	1001	1100	0	0	0	1	1091
20160101	0	20300101	0	50700	999999	0	1	1	1001	1100	1101	1100	0	0	0	1	1038
20160101	0	20300101	0	50700	999999	0	1	1	1016	1100	1101	1100	0	0	0	1	1092
20160101	0	20300101	0	50700	999999	0	1	1	1101	1100	1201	1100	0	0	0	1	1009
20160101	0	20300101	0	50700	999999	0	1	1	1116	1100	1201	1100	0	0	0	1	1093
20160101	0	20300101	0	50700	999999	0	1	1	1201	1100	101	0	0	0	0	1	1010
20170101	0	20300101	0	50700	999999	0	1	1	1216	1100	101	0	0	0	0	1	1094
20160101	0	20300101	0	50700	999999	0	1	0	4	6	12	18	24	0	0	14	0	1	2	3	4	5	6	7	8	9	10	700	701	702
20160101	0	20300101	0	50700	999999	0	1	0	0	1	0	1	50
20170402	0	20300101	0	51000	999999	0	1	0	1	2	0	0	1	1130
20170405	0	20300101	0	51000	999999	0	1	0	1	5	0	0	1	1131
20170408	0	20300101	0	51000	999999	0	1	0	1	8	0	0	1	1132
20170411	0	20300101	0	51000	999999	0	1	0	1	11	0	0	1	1133
20170414	0	20300101	0	51000	999999	0	1	0	1	14	0	0	1	1134
20170417	0	20300101	0	51000	999999	0	1	0	1	17	0	0	1	1135
20170420	0	20300101	0	51000	999999	0	1	0	1	20	0	0	1	1136
20170423	0	20300101	0	51000	999999	0	1	0	1	23	0	0	1	1137
20170426	0	20300101	0	51000	999999	0	1	0	1	26	0	0	1	1138
20170722	0	20300101	0	60200	999999	0	1	0	2	2	22	0	1	1422	1424	1	1148
20170809	0	20300101	0	60600	999999	0	0	1	12000
20170821	0	20300101	0	60300	999999	0	7	0	0	2	1	1200	1400	0	0	4	1	700	900	0	0	8	1	1800	2000	0	0	16	1	800	1000	0	0	32	1	1100	1300	0	0	64	1	2000	2200	0	0	1	3	800	1000	1300	1500	1800	2000	3	1150	1151	1152
20180201	0	20300101	0	60700	999999	0	1	0	4	1	2	15	16	0	0	1	1119
20180203	0	20300101	0	60700	999999	0	1	0	4	3	4	17	18	0	0	1	1128
20180204	0	20300101	0	60700	999999	0	1	0	0	1	0	1	1157
20180205	0	20300101	0	80200	110699	0	1	0	4	5	6	19	20	0	0	2	1111	1158
20180207	0	20300101	0	60800	999999	0	1	0	4	7	8	21	22	0	0	1	1095
20180209	0	20300101	0	80200	110699	0	1	0	4	9	10	23	24	0	0	1	1114
20180205	0	20300101	0	60800	999999	0	10	0	1	2	0	1	0	1200	0	1	5	0	1	1200	2400	0	1	8	0	1	0	1200	0	1	11	0	1	1200	2400	0	1	14	0	1	0	1200	0	1	17	0	1	1200	2400	0	1	20	0	1	0	1200	0	1	23	0	1	1200	2400	0	1	26	0	1	0	1200	0	1	29	0	1	1200	2400	1	1078
20180211	0	20300101	0	60800	999999	0	1	0	4	11	12	25	26	0	0	1	1117
20180213	0	20300101	0	80200	110699	0	1	0	4	13	14	27	28	0	0	1	1112
20180328	0	20300101	0	61000	999999	0	0	1	105
20180518	0	20300101	0	70000	999999	0	7	0	0	2	1	700	900	0	0	4	1	1200	1400	0	0	8	1	1900	2100	0	0	16	1	700	900	0	0	32	1	1200	1400	0	0	64	2	1500	1700	2100	2300	0	0	1	2	1000	1200	1900	2100	1	1162
20180917	0	20300101	0	70300	999999	0	1	0	0	2	0	1	1169
20181004	0	20300101	0	70400	999999	0	0	24	15000	15001	15002	15003	15004	15005	15006	15007	15008	15009	15010	15011	15012	15013	15014	15015	15016	15017	15018	15019	15020	15021	15022	15023
20181010	0	20300101	0	70400	999999	0	1	0	0	8	0	1	1172
20181109	0	20300101	0	70500	999999	0	1	0	0	32	0	1	1176
20181201	0	20300101	0	80000	999999	0	1	0	0	64	0	1	1185
20181217	1100	20300101	0	80000	999999	0	0	1	106
20181223	0	20300101	0	80100	999999	0	1	0	0	1	0	1	1187
20190114	0	20300101	0	80100	999999	0	1	0	4	9	10	23	24	0	0	1	1177
20190214	0	20300101	0	80200	999999	0	1	0	0	16	0	1	1193
20190311	0	20300101	0	80300	999999	0	0	1	15025
20190311	0	20300101	0	80300	999999	0	1	0	0	4	0	1	1195
20190311	0	20300101	0	80300	999999	0	1	0	4	7	8	21	22	0	0	1	1196
20190328	0	20300101	0	80300	999999	0	1	0	1	28	0	0	1	1161
20190409	1100	20300101	0	80400	999999	0	1	0	0	4	0	1	1198
20190525	0	20300101	0	80500	999999	0	1	0	4	11	12	25	26	0	0	1	1199
20190615	0	20300101	0	80600	999999	0	1	0	4	1	2	15	16	0	0	1	1201
20190701	1100	20300101	1100	80700	999999	0	1	0	0	1	0	1	1203
20190801	0	20300101	0	80800	999999	0	1	0	4	3	4	17	18	0	0	1	1205
20190901	0	20300101	0	80900	999999	0	1	0	4	5	6	19	20	0	0	1	1207
20190922	0	20300101	0	80900	999999	0	1	0	1	22	0	0	1	1209
20190922	0	20300101	0	80900	999999	0	1	0	1	22	0	0	3	100	101	104
20191001	0	20300101	0	80900	999999	0	1	0	1	1	0	0	1	1208
20190901	0	20300101	0	80900	999999	0	1	0	0	64	0	1	1189
20191001	0	20300101	0	81000	999999	0	1	0	4	9	10	23	24	0	0	1	1214
20191201	0	20300101	0	81000	999999	0	1	1	101	0	201	0	0	0	0	9	17000	17001	17002	17003	17004	17005	17006	17007	17008
20191201	0	20300101	0	81000	999999	0	1	1	201	0	301	0	0	0	0	9	17000	17001	17002	17003	17004	17005	17006	17007	17008
20191201	0	20300101	0	81000	999999	0	1	1	301	0	401	0	0	0	0	9	17000	17001	17002	17003	17004	17005	17006	17007	17008
20191201	0	20300101	0	81000	999999	0	1	1	401	0	501	0	0	0	0	9	17000	17001	17002	17003	17004	17005	17006	17007	17008
20191201	0	20300101	0	81000	999999	0	1	1	501	0	601	0	0	0	0	9	17000	17001	17002	17003	17004	17005	17006	17007	17008
20191201	0	20300101	0	81000	999999	0	1	1	601	0	701	0	0	0	0	9	17000	17001	17002	17003	17004	17005	17006	17007	17008
20191201	0	20300101	0	81000	999999	0	1	1	701	0	801	0	0	0	0	9	17000	17001	17002	17003	17004	17005	17006	17007	17008
20191201	0	20300101	0	81000	999999	0	1	1	801	0	901	0	0	0	0	9	17000	17001	17002	17003	17004	17005	17006	17007	17008
20191201	0	20300101	0	81000	999999	0	1	1	901	0	1001	0	0	0	0	9	17000	17001	17002	17003	17004	17005	17006	17007	17008
20191201	0	20300101	0	81000	999999	0	1	1	1001	0	1101	0	0	0	0	9	17000	17001	17002	17003	17004	17005	17006	17007	17008
20191201	0	20300101	0	81000	999999	0	1	1	1101	0	1201	0	0	0	0	9	17000	17001	17002	17003	17004	17005	17006	17007	17008
20191201	0	20300101	0	81000	999999	0	1	1	1201	0	101	0	0	0	0	9	17000	17001	17002	17003	17004	17005	17006	17007	17008
20191101	0	20300101	0	100400	999999	0	1	1	116	1100	201	1100	0	0	0	1	1184
20191101	0	20300101	0	100400	999999	0	1	1	216	1100	301	1100	0	0	0	1	1186
20191101	0	20300101	0	100400	999999	0	1	1	316	1100	401	1100	0	0	0	1	1192
20191101	0	20300101	0	100400	999999	0	1	1	416	1100	501	1100	0	0	0	1	1194
20191101	0	20300101	0	100400	999999	0	1	1	516	1100	601	1100	0	0	0	1	1197
20191101	0	20300101	0	100400	999999	0	1	1	616	1100	701	1100	0	0	0	1	1165
20191101	0	20300101	0	100400	999999	0	1	1	716	1100	801	1100	0	0	0	1	1166
20191101	0	20300101	0	100400	999999	0	1	1	816	1100	901	1100	0	0	0	1	1167
20191101	0	20300101	0	100400	999999	0	1	1	916	1100	1001	1100	0	0	0	1	1168
20191101	0	20300101	0	100400	999999	0	1	1	1016	1100	1101	1100	0	0	0	1	1170
20191101	0	20300101	0	100400	999999	0	1	1	1116	1100	1201	1100	0	0	0	1	1171
20191101	0	20300101	0	100400	999999	0	1	1	1216	1100	101	0	0	0	0	1	1175
20191101	0	20300101	0	81000	999999	0	1	1	101	0	201	1100	0	0	0	1	9160
20191101	0	20300101	0	81000	999999	0	1	1	116	1100	201	1100	0	0	0	3	9157	9158	9159
20191101	0	20300101	0	81000	999999	0	1	1	201	1100	301	1100	0	0	0	1	9173
20191101	0	20300101	0	81000	999999	0	1	1	216	1100	301	1100	0	0	0	3	9170	9171	9172
20191101	0	20300101	0	81000	999999	0	1	1	301	1100	401	1100	0	0	0	1	9177
20191101	0	20300101	0	81000	999999	0	1	1	316	1100	401	1100	0	0	0	3	9174	9175	9176
20191101	0	20300101	0	81000	999999	0	1	1	401	1100	501	1100	0	0	0	1	9182
20191101	0	20300101	0	81000	999999	0	1	1	416	1100	501	1100	0	0	0	3	9179	9180	9181
20191101	0	20300101	0	81000	999999	0	1	1	501	1100	601	1100	0	0	0	1	9187
20191101	0	20300101	0	81000	999999	0	1	1	516	1100	601	1100	0	0	0	3	9184	9185	9186
20191101	0	20300101	0	81000	999999	0	1	1	601	1100	701	1100	0	0	0	1	9092
20191101	0	20300101	0	81000	999999	0	1	1	616	1100	701	1100	0	0	0	3	9089	9090	9091
20191101	0	20300101	0	81000	999999	0	1	1	701	1100	801	1100	0	0	0	1	9101
20191101	0	20300101	0	81000	999999	0	1	1	716	1100	801	1100	0	0	0	3	9098	9099	9100
20191101	0	20300101	0	81000	999999	0	1	1	801	1100	901	1100	0	0	0	1	9114
20191101	0	20300101	0	81000	999999	0	1	1	816	1100	901	1100	0	0	0	3	9111	9112	9113
20191101	0	20300101	0	81000	999999	0	1	1	901	1100	1001	1100	0	0	0	1	9118
20191101	0	20300101	0	81000	999999	0	1	1	916	1100	1001	1100	0	0	0	3	9115	9116	9117
20191101	0	20300101	0	81000	999999	0	1	1	1001	1100	1101	1100	0	0	0	1	9137
20191101	0	20300101	0	81000	999999	0	1	1	1016	1100	1101	1100	0	0	0	3	9134	9135	9136
20191101	0	20300101	0	81000	999999	0	1	1	1101	1100	1201	1100	0	0	0	1	9141
20191101	0	20300101	0	81000	999999	0	1	1	1116	1100	1201	1100	0	0	0	3	9138	9139	9140
20191101	0	20300101	0	81000	999999	0	1	1	1201	1100	101	0	0	0	0	1	9154
20191101	0	20300101	0	81000	999999	0	1	1	1216	1100	101	0	0	0	0	3	9151	9152	9153
20191221	0	20300101	0	90100	999999	0	2	0	0	64	1	1100	1400	0	0	1	1	1800	2100	1	1222
20200217	0	20300101	0	90200	999999	0	1	0	4	1	2	15	16	0	0	1	1220
20200217	0	20300101	0	90200	999999	0	1	0	4	3	4	17	18	0	0	1	1219
20200217	0	20300101	0	90200	999999	0	1	0	4	11	12	25	26	0	0	1	1217
20200217	0	20300101	0	90200	999999	0	1	0	4	13	14	27	28	0	0	1	1215
20200309	0	20300101	0	90300	999999	0	1	0	4	13	14	27	28	0	0	1	1226
20200301	000	20300101	000	90400	999999	0	0	3	26000	26001	26002
20200511	1100	20300101	0	90400	999999	0	1	0	4	5	6	19	20	0	0	1	1229
20200721	0	20300101	0	90700	999999	0	1	0	4	7	8	21	22	0	0	1	1231
20200720	0	20300101	0	90700	110799	0	3	0	0	42	1	1100	1300	0	0	20	1	2000	2200	0	0	65	2	1100	1300	2000	2200	1	1233
20200717	000	20300101	000	90700	999999	0	0	3	26003	26004	26005
20200809	0	20300101	0	90700	999999	0	1	0	4	9	10	23	24	0	0	1	1232
20200923	000	20300101	000	90900	999999	0	0	2	15027	15028
20201019	000	20300101	000	91000	999999	0	0	1	107
20201019	000	20300101	000	91000	999999	0	0	8	28258	28259	28260	28272	28273	28317	28440	28535
20201113	0	20300101	0	91000	999999	0	1	0	4	13	14	27	28	0	0	1	1243
20210118	1100	20300101	000	100100	999999	0	0	1	28512
20210401	0	20300101	0	100300	999999	0	1	0	4	11	12	25	26	0	0	1	1246
20210508	0	20300101	0	100400	999999	0	1	0	0	64	0	1	1247
20210529	0	20300101	0	100500	999999	0	1	0	0	65	1	0	2400	1	1250
20210531	0	20300101	0	100500	999999	0	1	0	0	0	1	0	2400	33	14000	14001	14002	14003	14004	14005	14006	14007	14008	14009	14010	14011	14012	14013	14014	14015	14016	14017	14018	14019	14020	14021	14022	14023	14024	14025	14026	14027	14028	14029	14030	14031	14032
20210625	1100	20300101	000	100600	999999	0	0	9	15030	15031	15032	15033	15034	15035	15036	15037	15038
20210826	0	20300101	0	100800	100899	0	7	0	0	2	1	800	900	0	0	4	1	1200	1300	0	0	8	1	1900	2000	0	0	16	1	2200	2300	0	0	32	1	800	900	0	0	64	1	1200	1300	0	0	1	1	1900	2000	2	1255	1257
20210826	0	20300101	0	100800	100899	0	7	0	0	2	1	1200	1300	0	0	4	1	1900	2000	0	0	8	1	2200	2300	0	0	16	1	800	900	0	0	32	1	1200	1300	0	0	64	1	1900	2000	0	0	1	1	2200	2300	2	1256	1258
20210826	000	20300101	000	100800	999999	0	0	2	15039	15040
20210924	0	20300101	0	100800	999999	0	1	0	0	32	0	1	1259
20210927	0	20300101	0	100900	999999	0	7	0	0	2	1	800	1000	0	0	4	1	1200	1400	0	0	8	1	1900	2100	0	0	16	1	2200	2400	0	0	32	1	800	1000	0	0	64	1	1200	1400	0	0	1	1	1900	2100	2	1255	1257
20210927	0	20300101	0	100900	999999	0	7	0	0	2	1	1200	1400	0	0	4	1	1900	2100	0	0	8	1	2200	2400	0	0	16	1	800	1000	0	0	32	1	1200	1400	0	0	64	1	1900	2100	0	0	1	1	2200	2400	2	1256	1258
20210927	0	20300101	0	100900	999999	0	7	0	0	2	1	1900	2100	0	0	4	1	2200	2400	0	0	8	1	800	1000	0	0	16	1	1200	1400	0	0	32	1	1900	2100	0	0	64	1	2200	2400	0	0	1	1	800	1000	2	1265	1266
20210927	000	20300101	000	100900	999999	0	0	1	1268
20210927	0	20300101	0	100900	999999	0	7	0	0	2	1	1900	2100	0	0	4	1	2200	2400	0	0	8	1	800	1000	0	0	16	1	1200	1400	0	0	32	1	1900	2100	0	0	64	1	2200	2400	0	0	1	1	800	1000	1	1269
20210927	0	20300101	0	100900	999999	0	7	0	0	2	1	2200	2400	0	0	4	1	800	1000	0	0	8	1	1200	1400	0	0	16	1	1900	2100	0	0	32	1	2200	2400	0	0	64	1	800	1000	0	0	1	1	1200	1400	1	1270
20210927	0	20300101	0	100900	999999	0	0	4	15041	15042	15043	15045
20211028	0	20300101	0	101000	999999	0	7	0	0	2	1	800	1000	0	0	4	1	1200	1400	0	0	8	1	1900	2100	0	0	16	1	2200	2400	0	0	32	1	800	1000	0	0	64	1	1200	1400	0	0	1	1	1900	2100	1	1271
20211028	0	20300101	0	101000	999999	0	7	0	0	2	1	1200	1400	0	0	4	1	1900	2100	0	0	8	1	2200	2400	0	0	16	1	800	1000	0	0	32	1	1200	1400	0	0	64	1	1900	2100	0	0	1	1	2200	2400	1	1275
20211028	0	20300101	0	101000	999999	0	7	0	0	2	1	1200	1400	0	0	4	1	1900	2100	0	0	8	1	700	900	0	0	16	1	1200	1400	0	0	32	1	1900	2100	0	0	64	2	1000	1200	1900	2100	0	0	1	2	1500	1700	2100	2300	1	1274
20211129	0	20300101	0	110000	999999	0	7	0	0	2	1	1900	2100	0	0	4	1	2200	2400	0	0	8	1	800	1000	0	0	16	1	1200	1400	0	0	32	1	1900	2100	0	0	64	1	2200	2400	0	0	1	1	800	1000	1	1276
20211129	000	20300101	000	110000	999999	0	0	1	15047
20211227	0	20300101	0	110000	999999	0	7	0	0	2	1	2100	2200	0	0	4	1	1700	1800	0	0	8	1	1700	1800	0	0	16	1	1200	1300	0	0	32	1	1700	1800	0	0	64	2	1200	1300	1900	2000	0	0	1	2	1200	1300	1900	2000	1	104
20220125	0	20300101	0	110100	999999	0	1	0	4	11	12	25	26	0	0	1	1273
20220123	0	20300101	0	110100	999999	0	1	0	4	9	10	23	24	0	0	1	1272
20220411	0	20300101	0	110400	999999	0	1	0	0	0	1	0	2400	1	14033
20220411	0	20300101	0	110400	999999	0	7	0	0	2	1	2200	2400	0	0	4	1	800	1000	0	0	8	1	1200	1400	0	0	16	1	1900	2100	0	0	32	1	2200	2400	0	0	64	1	800	1000	0	0	1	1	1200	1400	1	1277
20220511	0	20300101	0	110400	999999	0	1	0	4	11	12	25	26	0	0	1	1296
20220518	0	20300101	0	110500	999999	0	1	0	0	0	1	0	2400	16	14034	14035	14036	14037	14038	14039	14040	14041	14042	14043	14044	14045	14046	14047	14048	14049
20220518	0	20300101	0	110500	999999	0	7	0	0	2	1	700	1100	0	0	4	1	1200	1600	0	0	8	1	1900	2300	0	0	16	1	700	1100	0	0	32	1	1200	1600	0	0	64	1	1900	2300	0	0	1	1	1200	1600	1	31000
20220518	0	20300101	0	110500	999999	0	7	0	0	2	1	1200	1600	0	0	4	1	1900	2300	0	0	8	1	700	1100	0	0	16	1	1200	1600	0	0	32	1	1900	2300	0	0	64	1	700	1100	0	0	1	1	1900	2300	1	31001
20220518	0	20300101	0	110500	999999	0	7	0	0	2	1	1900	2300	0	0	4	1	700	1100	0	0	8	1	1200	1600	0	0	16	1	1900	2300	0	0	32	1	700	1100	0	0	64	1	1200	1600	0	0	1	1	700	1100	1	31002
20220518	000	20300101	000	110500	999999	0	0	3	26012	26013	26014
20220518	000	20300101	000	110500	999999	0	0	2	15048	15049
20220620	0	20300101	0	110600	999999	0	7	0	0	2	1	700	1100	0	0	4	1	1200	1600	0	0	8	1	1900	2300	0	0	16	1	700	1100	0	0	32	1	1200	1600	0	0	64	1	1900	2300	0	0	1	1	1200	1600	1	1312
20220620	0	20300101	0	110600	999999	0	7	0	0	2	1	1200	1600	0	0	4	1	1900	2300	0	0	8	1	700	1100	0	0	16	1	1200	1600	0	0	32	1	1900	2300	0	0	64	1	700	1100	0	0	1	1	1900	2300	1	1313
20220620	0	20300101	0	110600	999999	0	7	0	0	2	1	1900	2300	0	0	4	1	700	1100	0	0	8	1	1200	1600	0	0	16	1	1900	2300	0	0	32	1	700	1100	0	0	64	1	1200	1600	0	0	1	1	700	1100	1	1314
20220620	000	20300101	000	110600	999999	0	0	2	15050	15051
20220801	1100	20300101	0	110700	999999	0	1	1	101	0	116	1100	0	0	0	1	24032
20220801	1100	20300101	0	110700	999999	0	1	1	116	1100	201	1100	0	0	0	1	24033
20220801	1100	20300101	0	110700	999999	0	1	1	201	1100	216	1100	0	0	0	1	24039
20220801	1100	20300101	0	110700	999999	0	1	1	216	1100	301	1100	0	0	0	1	24040
20220801	1100	20300101	0	110700	999999	0	1	1	301	1100	316	1100	0	0	0	1	24043
20220801	1100	20300101	0	110700	999999	0	1	1	316	1100	401	1100	0	0	0	1	24044
20220801	1100	20300101	0	110700	999999	0	1	1	401	1100	416	1100	0	0	0	1	24046
20220801	1100	20300101	0	110700	999999	0	1	1	416	1100	501	1100	0	0	0	1	24047
20220801	1100	20300101	0	110700	999999	0	1	1	501	1100	516	1100	0	0	0	1	24050
20220801	1100	20300101	0	110700	999999	0	1	1	516	1100	601	1100	0	0	0	1	24051
20220801	1100	20300101	0	110700	999999	0	1	1	601	1100	616	1100	0	0	0	1	24015
20220801	1100	20300101	0	110700	999999	0	1	1	616	1100	701	1100	0	0	0	1	24016
20220801	1100	20300101	0	110700	999999	0	1	1	701	1100	716	1100	0	0	0	1	24017
20220801	1100	20300101	0	110700	999999	0	1	1	716	1100	801	1100	0	0	0	1	24018
20220801	1100	20300101	0	110700	999999	0	1	1	801	1100	816	1100	0	0	0	1	24021
20220801	1100	20300101	0	110700	999999	0	1	1	816	1100	901	1100	0	0	0	1	24022
20220801	1100	20300101	0	110700	999999	0	1	1	901	1100	916	1100	0	0	0	1	24023
20220801	1100	20300101	0	110700	999999	0	1	1	916	1100	1001	1100	0	0	0	1	24024
20220801	1100	20300101	0	110700	999999	0	1	1	1001	1100	1016	1100	0	0	0	1	24025
20220801	1100	20300101	0	110700	999999	0	1	1	1016	1100	1101	1100	0	0	0	1	24026
20220801	1100	20300101	0	110700	999999	0	1	1	1101	1100	1116	1100	0	0	0	1	24028
20220801	1100	20300101	0	110700	999999	0	1	1	1116	1100	1201	1100	0	0	0	1	24029
20220801	1100	20300101	0	110700	999999	0	1	1	1201	1100	1216	1100	0	0	0	1	24030
20220801	1100	20300101	0	110700	999999	0	1	1	1216	1100	101	0	0	0	0	1	24031
20220720	0	20300101	0	110700	999999	0	5	0	0	2	1	1200	1300	0	0	8	1	1500	1600	0	0	32	1	1900	2000	0	0	64	2	1200	1300	2200	2300	0	0	1	2	1000	1100	1600	1700	1	1124
20220720	0	20300101	0	110700	999999	0	4	0	0	4	1	1300	1400	0	0	16	1	1700	1800	0	0	64	1	1000	1100	0	0	1	1	2100	2200	1	1155
20220720	0	20300101	0	110700	999999	0	7	0	0	2	1	800	1000	0	0	4	1	1200	1400	0	0	8	1	1900	2100	0	0	16	1	2200	2400	0	0	32	1	800	1000	0	0	64	1	1200	1400	0	0	1	1	1900	2100	1	1278
20220720	0	20300101	0	110700	999999	0	1	0	2	6	7	0	0	1	1111
20220720	0	20300101	0	110700	999999	0	1	0	2	20	21	0	0	1	1112
20220720	0	20300101	0	110700	999999	0	1	0	2	13	14	0	0	1	1114
20220720	0	20300101	0	110700	999999	0	1	0	4	5	6	19	20	0	0	1	1158
20220829	000	20300101	000	110800	999999	0	0	2	15052	15053
20220829	0	20300101	0	110800	999999	0	4	0	0	2	1	1300	1400	0	0	8	1	1900	2000	0	0	64	1	1100	1200	0	0	1	1	1900	2000	1	1319
20220829	000	20300101	000	110800	999999	0	0	1	15054
20220829	0	20300101	0	110800	999999	0	4	0	0	42	1	1100	1300	0	0	20	1	2000	2200	0	0	64	1	1100	1300	0	0	1	1	2000	2200	1	24055
20221019	0	20300101	0	110900	999999	0	7	0	0	2	1	1200	1400	0	0	4	1	1900	2100	0	0	8	1	2200	2400	0	0	16	1	800	1000	0	0	32	1	1200	1400	0	0	64	1	1900	2100	0	0	1	1	2200	2400	1	1279
20221024	1100	20300101	000	110900	999999	0	0	1	28483
20230110	1100	20300101	0	120000	999999	0	7	0	0	2	1	700	1100	0	0	4	1	1200	1600	0	0	8	1	1900	2300	0	0	16	1	700	1100	0	0	32	1	1200	1600	0	0	64	1	1900	2300	0	0	1	1	1200	1600	1	1326
20230216	000	20300101	000	120100	999999	0	0	1	15056
20230216	0	20300101	0	120100	999999	0	7	0	0	2	1	700	1100	0	0	4	1	1200	1600	0	0	8	1	1900	2300	0	0	16	1	700	1100	0	0	32	1	1200	1600	0	0	64	1	1900	2300	0	0	1	1	1200	1600	1	1333
20230216	0	20300101	0	120100	999999	0	7	0	0	2	1	1200	1600	0	0	4	1	1900	2300	0	0	8	1	700	1100	0	0	16	1	1200	1600	0	0	32	1	1900	2300	0	0	64	1	700	1100	0	0	1	1	1900	2300	1	1334
20230216	0	20300101	0	120100	999999	0	7	0	0	2	1	1900	2300	0	0	4	1	700	1100	0	0	8	1	1200	1600	0	0	16	1	1900	2300	0	0	32	1	700	1100	0	0	64	1	1200	1600	0	0	1	1	700	1100	1	1335
20230216	000	20300101	000	120100	999999	0	0	3	26006	26007	26008
20230227	0	20230807	0	120100	999999	0	12	1	227	0	306	0	0	0	0	1	313	0	320	0	0	0	0	1	327	0	403	0	0	0	0	1	410	0	417	0	0	0	0	1	424	0	501	0	0	0	0	1	508	0	515	0	0	0	0	1	522	0	529	0	0	0	0	1	605	0	612	0	0	0	0	1	619	0	626	0	0	0	0	1	703	0	710	0	0	0	0	1	717	0	724	0	0	0	0	1	731	0	807	0	0	0	0	10	8000	8001	8002	8003	8004	8005	8006	8007	8008	8010
20230306	0	20230814	0	120100	999999	0	12	1	306	0	313	0	0	0	0	1	320	0	327	0	0	0	0	1	403	0	410	0	0	0	0	1	417	0	424	0	0	0	0	1	501	0	508	0	0	0	0	1	515	0	522	0	0	0	0	1	529	0	605	0	0	0	0	1	612	0	619	0	0	0	0	1	626	0	703	0	0	0	0	1	710	0	717	0	0	0	0	1	724	0	731	0	0	0	0	1	807	0	814	0	0	0	0	10	8000	8001	8002	8003	8004	8005	8006	8007	8009	8011
20230227	1100	20300101	000	120100	999999	0	0	2	28189	28507
20230405	0	20300101	0	120200	999999	0	1	0	4	5	6	19	20	0	0	1	1338
20230405	0	20300101	0	120200	999999	0	9	0	1	2	0	0	0	1	5	0	0	0	1	8	0	0	0	1	11	0	0	0	1	14	0	0	0	1	17	0	0	0	1	20	0	0	0	1	23	0	0	0	1	26	0	0	1	1339
20230405	0	20300101	0	120200	999999	0	7	0	0	2	1	1900	2100	0	0	4	1	2200	2400	0	0	8	1	800	1000	0	0	16	1	1200	1400	0	0	32	1	1900	2100	0	0	64	1	2200	2400	0	0	1	1	800	1000	1	1280
20230410	1100	20300101	000	120200	999999	0	0	1	28457
20230517	000	20300101	000	120300	999999	0	0	3	15057	15058	15059	0
20230622	0	20300101	0	120400	999999	0	1	0	0	0	1	0	2400	1	14050	0
20230622	000	20300101	000	120400	999999	0	0	1	26015	0
20230626	1100	20230731	1100	120400	999999	0	0	3	9224	9225	15029	0
20230626	1100	20230731	1100	120400	999999	0	1	0	0	0	1	0	2400	1	1244	0
20230626	1100	20230731	1059	120400	999999	0	0	1	11019	0
20230626	1100	20230731	1100	120400	999999	0	0	1	1067	0
20230626	1100	20230731	1100	120400	999999	0	0	1	24049	0
20230626	1100	20230731	1100	120400	999999	0	0	1	7007	0
20230626	1100	20230731	1100	120400	999999	0	1	0	0	0	3	700	900	1200	1400	1900	2100	10	102	3000	3001	3002	3003	3004	3005	3006	3007	3008	0
20230626	1100	20230731	1100	120400	999999	0	1	0	15	2	4	6	8	10	12	14	16	18	20	22	24	26	28	30	0	0	1	100	0
20230626	1100	20230731	1100	120400	999999	0	1	0	16	1	3	5	7	9	11	13	15	17	19	21	23	25	27	29	31	0	0	1	101	0
20230626	1100	20230731	1100	120400	999999	0	1	0	11	1	4	7	10	13	16	19	22	25	28	31	0	0	1	104	0
20230629	1100	20230731	1100	120400	999999	0	0	1	7001	0
20230702	1100	20230731	1100	120400	999999	0	0	1	7002	0
20230705	1100	20230731	1100	120400	999999	0	0	1	7003	0
20230708	1100	20230731	1100	120400	999999	0	0	1	7004	0
20230708	1100	20230714	1100	120400	999999	0	0	1	1035	0
20230710	000	20230717	000	120400	999999	0	0	1	1173	0
20230707	0	20300101	0	120400	999999	0	1	0	0	32	0	1	1342	0
20230710	1100	20230731	1100	120400	999999	0	0	1	18000	0
20230710	1100	20230731	1100	120400	999999	0	0	8	1119	1201	1128	1205	1215	1252	1305	1306	0
20230710	1100	20230731	1100	120400	999999	0	0	9	9163	9164	9211	9322	9232	9234	9323	9324	9238	0
20230710	1100	20230731	1100	120400	999999	0	0	1	7005	0
20230710	1100	20230731	1100	120400	999999	0	1	0	0	0	3	600	900	1200	1500	1900	2300	1	1182	0
20230710	1100	20230717	1100	120400	999999	0	0	3	5008	5009	5010	0
20230714	1100	20230720	1100	120400	999999	0	0	1	1070	0
20230717	000	20230724	000	120400	999999	0	0	1	1173	0
20230710	1100	20230724	1100	120400	999999	0	0	1	16000	0
20230714	000	20230717	000	120400	999999	0	0	1	51	0
20230715	0	20230717	0	120400	999999	0	1	0	0	0	3	800	1000	1200	1400	1900	2100	1	1118	0
20230717	1100	20230807	1100	120400	999999	0	0	1	24052	0
20230717	1100	20230807	1100	120400	999999	0	0	5	9353	9354	9355	9356	9357	0
20230717	1100	20230807	1100	120400	999999	0	0	1	1343	0
20230717	1100	20230807	1100	120400	999999	0	0	7	9425	9426	9427	9428	9429	9430	9431	0
20230717	1100	20230805	1059	120400	999999	0	0	1	33000	0
20230717	1100	20230724	1100	120400	999999	0	0	1	24027	0
20230721	000	20230724	000	120400	999999	0	0	1	51	0
20230722	000	20230724	000	120400	999999	0	0	5	1097	1098	1099	1100	1101	0
20230724	1100	20230807	1100	120400	999999	0	0	1	1308	0
20230724	1100	20230807	1100	120400	999999	0	0	3	9358	9359	9360	0
20230728	000	20230731	000	120400	999999	0	0	1	51	0
20230728	1100	20230730	1100	120400	999999	0	0	1	1340	0
20230717	1100	20230724	1100	120400	999999	0	0	1	5011	0
20230720	1100	20230726	1100	120400	999999	0	0	1	1079	0
20230724	000	20230731	1100	120400	999999	0	0	1	1173	0
20230724	1100	20230731	1100	120400	999999	0	0	3	5008	5009	5010	0
20230726	1100	20230731	1100	120400	999999	0	0	1	1146	0
[end]
